R Practice: Functions
…
##<function_name> <- function(<argument1>, <argument2>, ...) {
  #<whatever code your function needs to run>
 # return(<something>)
#}

comm_names <- function(df1, species) {
  return_df <- df1 %>% 
  left_join(species, by = c("species" = "alpha_code"))
  return(return_df)
}

# testing my function
comm_names(egg_measures, species)

# A tibble: 18,749 × 13
   book_page  year site  nestID  unique_nestID plot  plotLmt species egg_no
       <dbl> <dbl> <chr> <chr>   <chr>         <chr> <chr>   <chr>    <dbl>
 1      1.02  2003 barr  dunl701 03dunl701     brw1  out     dunl         1
 2      1.02  2003 barr  dunl701 03dunl701     brw1  out     dunl         2
 3      1.02  2003 barr  dunl701 03dunl701     brw1  out     dunl         3
 4      1.02  2003 barr  dunl701 03dunl701     brw1  out     dunl         4
 5      1.03  2003 barr  dunl306 03dunl306     brw1  in      dunl         1
 6      1.03  2003 barr  dunl306 03dunl306     brw1  in      dunl         2
 7      1.03  2003 barr  dunl306 03dunl306     brw1  in      dunl         3
 8      1.03  2003 barr  dunl306 03dunl306     brw1  in      dunl         4
 9      1.04  2003 barr  reph307 03reph307     brw1  in      reph         1
10      1.04  2003 barr  reph307 03reph307     brw1  in      reph         2
# ℹ 18,739 more rows
# ℹ 4 more variables: length <dbl>, width <dbl>, comments <chr>,
#   common_name <chr>

comm_names(nest_data, species)

# A tibble: 5,577 × 105
   book_page  year site  nestID  uniqueID  plot  species finder  nwstake old_lat
   <chr>     <dbl> <chr> <chr>   <chr>     <chr> <chr>   <chr>   <chr>     <dbl>
 1 1.01       2003 barr  dunl300 03dunl300 brw1  dunl    trask   i8           NA
 2 1.03       2003 barr  dunl306 03dunl306 brw1  dunl    trask   c6           NA
 3 1.04       2003 barr  reph307 03reph307 brw1  reph    trask   i9           NA
 4 1.05       2003 barr  dunl305 03dunl305 brw1  dunl    trask   j5           NA
 5 1.06       2003 barr  pesa510 03pesa510 brw1  pesa    rlanct… k1           NA
 6 1.07       2003 barr  reph310 03reph310 brw1  reph    trask   b4           NA
 7 1.08       2003 barr  reph311 03reph311 brw1  reph    trask   f5           NA
 8 1.09       2003 barr  lbdo005 03lbdo005 brw1  lbdo    thomas  g5           NA
 9 1.1        2003 barr  reph317 03reph317 brw1  reph    trask   a9           NA
10 1.11       2003 barr  pesa318 03pesa318 brw1  pesa    trask   d1           NA
# ℹ 5,567 more rows
# ℹ 95 more variables: lat_corrected <dbl>, old_long <dbl>,
#   long_corrected <dbl>, notes_GPS_change <chr>, use_GPS <chr>, how_fnd <chr>,
#   plotLmt <chr>, fence <chr>, unk1_band <chr>, unk1_original_band <chr>,
#   unk1_captured <chr>, unk1_UL <chr>, unk1_LL <chr>, unk1_UR <chr>,
#   unk1_LR <chr>, unk1_gfe <chr>, unk2_band <dbl>, unk2_original_band <dbl>,
#   unk2_captured <chr>, unk2_UL <chr>, unk2_LL <chr>, unk2_UR <chr>, …
